package rh.demo;

import rh.demo.Approver;
import rh.demo.ApprovalStatus;


rule "Require all primary approvers when no secondaries"
no-loop true
ruleflow-group "approver-rules"
when
    $a : ApprovalStatus()
    not Approver(primary == false) // No Secondaries
    Approver(approved == false) // Missing approval
then
    $a.setApproved(false);
    update($a);
end

rule "Require any approval when secondary approvers are present"
no-loop true
ruleflow-group "approver-rules"
when
    $a : ApprovalStatus()
    Approver(primary == false) // Secondary approver present
    not Approver(approved == true) // No approvals yet
then
    $a.setApproved(false);
    update($a);
end
